﻿  main.cpp
c:\users\kitech\downloads\mlfile\yolo_mark-master\yolo_mark-master\main.cpp(160): warning C4244: '초기화 중': 'double'에서 'int'(으)로 변환하면서 데이터가 손실될 수 있습니다.
c:\users\kitech\downloads\mlfile\yolo_mark-master\yolo_mark-master\main.cpp(160): warning C4244: '초기화 중': 'double'에서 'const int'(으)로 변환하면서 데이터가 손실될 수 있습니다.
c:\users\kitech\downloads\mlfile\yolo_mark-master\yolo_mark-master\main.cpp(165): warning C4244: '=': 'unsigned long'에서 'float'(으)로 변환하면서 데이터가 손실될 수 있습니다.
c:\users\kitech\downloads\mlfile\yolo_mark-master\yolo_mark-master\main.cpp(168): warning C4267: '=': 'size_t'에서 'int'(으)로 변환하면서 데이터가 손실될 수 있습니다.
c:\users\kitech\downloads\mlfile\yolo_mark-master\yolo_mark-master\main.cpp(216): warning C4267: '=': 'size_t'에서 'int'(으)로 변환하면서 데이터가 손실될 수 있습니다.
c:\users\kitech\downloads\mlfile\yolo_mark-master\yolo_mark-master\main.cpp(366): warning C4267: '초기화 중': 'size_t'에서 'int'(으)로 변환하면서 데이터가 손실될 수 있습니다.
c:\users\kitech\downloads\mlfile\yolo_mark-master\yolo_mark-master\main.cpp(366): warning C4267: '초기화 중': 'size_t'에서 'const int'(으)로 변환하면서 데이터가 손실될 수 있습니다.
c:\users\kitech\downloads\mlfile\yolo_mark-master\yolo_mark-master\main.cpp(442): warning C4267: '초기화 중': 'size_t'에서 'int'(으)로 변환하면서 데이터가 손실될 수 있습니다.
c:\users\kitech\downloads\mlfile\yolo_mark-master\yolo_mark-master\main.cpp(442): warning C4267: '초기화 중': 'size_t'에서 'const int'(으)로 변환하면서 데이터가 손실될 수 있습니다.
c:\users\kitech\downloads\mlfile\yolo_mark-master\yolo_mark-master\main.cpp(512): warning C4267: '초기화 중': 'size_t'에서 'int'(으)로 변환하면서 데이터가 손실될 수 있습니다.
c:\users\kitech\downloads\mlfile\yolo_mark-master\yolo_mark-master\main.cpp(512): warning C4267: '초기화 중': 'size_t'에서 'const int'(으)로 변환하면서 데이터가 손실될 수 있습니다.
c:\users\kitech\downloads\mlfile\yolo_mark-master\yolo_mark-master\main.cpp(576): warning C4244: '초기화 중': 'float'에서 'int'(으)로 변환하면서 데이터가 손실될 수 있습니다.
c:\users\kitech\downloads\mlfile\yolo_mark-master\yolo_mark-master\main.cpp(576): warning C4244: '초기화 중': 'float'에서 'const int'(으)로 변환하면서 데이터가 손실될 수 있습니다.
c:\users\kitech\downloads\mlfile\yolo_mark-master\yolo_mark-master\main.cpp(577): warning C4244: '초기화 중': 'float'에서 'int'(으)로 변환하면서 데이터가 손실될 수 있습니다.
c:\users\kitech\downloads\mlfile\yolo_mark-master\yolo_mark-master\main.cpp(577): warning C4244: '초기화 중': 'float'에서 'const int'(으)로 변환하면서 데이터가 손실될 수 있습니다.
c:\users\kitech\downloads\mlfile\yolo_mark-master\yolo_mark-master\main.cpp(685): warning C4267: '=': 'size_t'에서 'int'(으)로 변환하면서 데이터가 손실될 수 있습니다.
c:\users\kitech\downloads\mlfile\yolo_mark-master\yolo_mark-master\main.cpp(735): warning C4267: '인수': 'size_t'에서 'int'(으)로 변환하면서 데이터가 손실될 수 있습니다.
  코드를 생성하고 있습니다.
  1 of 773 functions ( 0.1%) were compiled, the rest were copied from previous compilation.
    0 functions were new in current compilation
    0 functions had inline decision re-evaluated but remain unchanged
  코드를 생성했습니다.
  yolo_mark.vcxproj -> C:\Users\kitech\Downloads\MLfile\Yolo_mark-master\Yolo_mark-master\x64\Release\yolo_mark.exe
